<?xml version="1.0" encoding="UTF-8"?>
<testsuite xmlns:xsi="http://www.w3.org/2001/XMLSchema-instance" xsi:noNamespaceSchemaLocation="https://maven.apache.org/surefire/maven-surefire-plugin/xsd/surefire-test-report.xsd" name="cat.cap.cms.utils.UtilsTest" time="0.04" tests="14" errors="0" skipped="0" failures="0">
  <properties>
    <property name="sun.desktop" value="windows"/>
    <property name="awt.toolkit" value="sun.awt.windows.WToolkit"/>
    <property name="file.encoding.pkg" value="sun.io"/>
    <property name="java.specification.version" value="1.8"/>
    <property name="sun.cpu.isalist" value="amd64"/>
    <property name="sun.jnu.encoding" value="Cp1252"/>
    <property name="java.class.path" value="C:\Users\gonca\Documents\Programa da Catequese\CatequeseManagingSystem\target\test-classes;C:\Users\gonca\Documents\Programa da Catequese\CatequeseManagingSystem\target\classes;C:\Users\gonca\.m2\repository\org\docx4j\docx4j\6.1.2\docx4j-6.1.2.jar;C:\Users\gonca\.m2\repository\org\plutext\jaxb-svg11\1.0.2\jaxb-svg11-1.0.2.jar;C:\Users\gonca\.m2\repository\net\engio\mbassador\1.2.4.2\mbassador-1.2.4.2.jar;C:\Users\gonca\.m2\repository\org\slf4j\slf4j-api\1.7.25\slf4j-api-1.7.25.jar;C:\Users\gonca\.m2\repository\org\slf4j\jcl-over-slf4j\1.7.25\jcl-over-slf4j-1.7.25.jar;C:\Users\gonca\.m2\repository\org\slf4j\slf4j-log4j12\1.7.25\slf4j-log4j12-1.7.25.jar;C:\Users\gonca\.m2\repository\log4j\log4j\1.2.17\log4j-1.2.17.jar;C:\Users\gonca\.m2\repository\org\apache\commons\commons-lang3\3.5\commons-lang3-3.5.jar;C:\Users\gonca\.m2\repository\org\apache\commons\commons-compress\1.12\commons-compress-1.12.jar;C:\Users\gonca\.m2\repository\commons-codec\commons-codec\1.11\commons-codec-1.11.jar;C:\Users\gonca\.m2\repository\commons-io\commons-io\2.5\commons-io-2.5.jar;C:\Users\gonca\.m2\repository\org\apache\httpcomponents\httpclient\4.5.6\httpclient-4.5.6.jar;C:\Users\gonca\.m2\repository\org\apache\httpcomponents\httpcore\4.4.10\httpcore-4.4.10.jar;C:\Users\gonca\.m2\repository\com\fasterxml\jackson\core\jackson-core\2.7.9\jackson-core-2.7.9.jar;C:\Users\gonca\.m2\repository\com\fasterxml\jackson\core\jackson-databind\2.7.9.4\jackson-databind-2.7.9.4.jar;C:\Users\gonca\.m2\repository\com\fasterxml\jackson\core\jackson-annotations\2.7.0\jackson-annotations-2.7.0.jar;C:\Users\gonca\.m2\repository\org\apache\xmlgraphics\xmlgraphics-commons\2.3\xmlgraphics-commons-2.3.jar;C:\Users\gonca\.m2\repository\org\apache\avalon\framework\avalon-framework-api\4.3.1\avalon-framework-api-4.3.1.jar;C:\Users\gonca\.m2\repository\org\apache\avalon\framework\avalon-framework-impl\4.3.1\avalon-framework-impl-4.3.1.jar;C:\Users\gonca\.m2\repository\xalan\xalan\2.7.2\xalan-2.7.2.jar;C:\Users\gonca\.m2\repository\xalan\serializer\2.7.2\serializer-2.7.2.jar;C:\Users\gonca\.m2\repository\net\arnx\wmf2svg\0.9.8\wmf2svg-0.9.8.jar;C:\Users\gonca\.m2\repository\org\antlr\antlr-runtime\3.5.2\antlr-runtime-3.5.2.jar;C:\Users\gonca\.m2\repository\org\antlr\stringtemplate\3.2.1\stringtemplate-3.2.1.jar;C:\Users\gonca\.m2\repository\antlr\antlr\2.7.7\antlr-2.7.7.jar;C:\Users\gonca\.m2\repository\com\google\guava\guava\20.0\guava-20.0.jar;C:\Users\gonca\.m2\repository\com\thedeanda\lorem\2.1\lorem-2.1.jar;C:\Users\gonca\.m2\repository\com\sun\mail\javax.mail\1.6.2\javax.mail-1.6.2.jar;C:\Users\gonca\.m2\repository\javax\activation\activation\1.1\activation-1.1.jar;C:\Users\gonca\.m2\repository\com\oracle\jdbc\ojdbc7\12.1.0.2\ojdbc7-12.1.0.2.jar;C:\Users\gonca\.m2\repository\com\oracle\jdbc\xdb6\12.1.0.2\xdb6-12.1.0.2.jar;C:\Users\gonca\.m2\repository\com\oracle\jdbc\orai18n\12.1.0.2\orai18n-12.1.0.2.jar;C:\Users\gonca\.m2\repository\com\oracle\jdbc\xmlparserv2\12.1.0.2\xmlparserv2-12.1.0.2.jar;C:\Users\gonca\.m2\repository\com\oracle\jdbc\oraclepki\12.1.0.2\oraclepki-12.1.0.2.jar;C:\Users\gonca\.m2\repository\com\oracle\jdbc\osdt_cert\12.1.0.2\osdt_cert-12.1.0.2.jar;C:\Users\gonca\.m2\repository\com\oracle\jdbc\osdt_core\12.1.0.2\osdt_core-12.1.0.2.jar;C:\Users\gonca\.m2\repository\org\junit\jupiter\junit-jupiter-api\5.5.2\junit-jupiter-api-5.5.2.jar;C:\Users\gonca\.m2\repository\org\apiguardian\apiguardian-api\1.1.0\apiguardian-api-1.1.0.jar;C:\Users\gonca\.m2\repository\org\opentest4j\opentest4j\1.2.0\opentest4j-1.2.0.jar;C:\Users\gonca\.m2\repository\org\junit\platform\junit-platform-commons\1.5.2\junit-platform-commons-1.5.2.jar;C:\Users\gonca\.m2\repository\org\junit\jupiter\junit-jupiter-engine\5.5.2\junit-jupiter-engine-5.5.2.jar;C:\Users\gonca\.m2\repository\org\junit\platform\junit-platform-engine\1.5.2\junit-platform-engine-1.5.2.jar;C:\Users\gonca\.m2\repository\org\xmlunit\xmlunit-core\2.6.3\xmlunit-core-2.6.3.jar;C:\Users\gonca\.m2\repository\org\xmlunit\xmlunit-matchers\2.6.3\xmlunit-matchers-2.6.3.jar;C:\Users\gonca\.m2\repository\junit\junit\4.12\junit-4.12.jar;C:\Users\gonca\.m2\repository\org\hamcrest\hamcrest-core\1.3\hamcrest-core-1.3.jar;C:\Users\gonca\.m2\repository\org\mockito\mockito-all\1.9.5\mockito-all-1.9.5.jar;"/>
    <property name="java.vm.vendor" value="Oracle Corporation"/>
    <property name="sun.arch.data.model" value="64"/>
    <property name="user.variant" value=""/>
    <property name="java.vendor.url" value="http://java.oracle.com/"/>
    <property name="user.timezone" value="Europe/London"/>
    <property name="java.vm.specification.version" value="1.8"/>
    <property name="os.name" value="Windows 10"/>
    <property name="sun.java.launcher" value="SUN_STANDARD"/>
    <property name="user.country" value="PT"/>
    <property name="sun.boot.library.path" value="C:\Program Files\Java\jdk1.8.0_241\jre\bin"/>
    <property name="sun.java.command" value="C:\Users\gonca\AppData\Local\Temp\surefire8614156445909013893\surefirebooter6206875879579583278.jar C:\Users\gonca\AppData\Local\Temp\surefire8614156445909013893 2020-02-04T15-17-14_997-jvmRun1 surefire4749649192493139549tmp surefire_03617200141531572520tmp"/>
    <property name="surefire.test.class.path" value="C:\Users\gonca\Documents\Programa da Catequese\CatequeseManagingSystem\target\test-classes;C:\Users\gonca\Documents\Programa da Catequese\CatequeseManagingSystem\target\classes;C:\Users\gonca\.m2\repository\org\docx4j\docx4j\6.1.2\docx4j-6.1.2.jar;C:\Users\gonca\.m2\repository\org\plutext\jaxb-svg11\1.0.2\jaxb-svg11-1.0.2.jar;C:\Users\gonca\.m2\repository\net\engio\mbassador\1.2.4.2\mbassador-1.2.4.2.jar;C:\Users\gonca\.m2\repository\org\slf4j\slf4j-api\1.7.25\slf4j-api-1.7.25.jar;C:\Users\gonca\.m2\repository\org\slf4j\jcl-over-slf4j\1.7.25\jcl-over-slf4j-1.7.25.jar;C:\Users\gonca\.m2\repository\org\slf4j\slf4j-log4j12\1.7.25\slf4j-log4j12-1.7.25.jar;C:\Users\gonca\.m2\repository\log4j\log4j\1.2.17\log4j-1.2.17.jar;C:\Users\gonca\.m2\repository\org\apache\commons\commons-lang3\3.5\commons-lang3-3.5.jar;C:\Users\gonca\.m2\repository\org\apache\commons\commons-compress\1.12\commons-compress-1.12.jar;C:\Users\gonca\.m2\repository\commons-codec\commons-codec\1.11\commons-codec-1.11.jar;C:\Users\gonca\.m2\repository\commons-io\commons-io\2.5\commons-io-2.5.jar;C:\Users\gonca\.m2\repository\org\apache\httpcomponents\httpclient\4.5.6\httpclient-4.5.6.jar;C:\Users\gonca\.m2\repository\org\apache\httpcomponents\httpcore\4.4.10\httpcore-4.4.10.jar;C:\Users\gonca\.m2\repository\com\fasterxml\jackson\core\jackson-core\2.7.9\jackson-core-2.7.9.jar;C:\Users\gonca\.m2\repository\com\fasterxml\jackson\core\jackson-databind\2.7.9.4\jackson-databind-2.7.9.4.jar;C:\Users\gonca\.m2\repository\com\fasterxml\jackson\core\jackson-annotations\2.7.0\jackson-annotations-2.7.0.jar;C:\Users\gonca\.m2\repository\org\apache\xmlgraphics\xmlgraphics-commons\2.3\xmlgraphics-commons-2.3.jar;C:\Users\gonca\.m2\repository\org\apache\avalon\framework\avalon-framework-api\4.3.1\avalon-framework-api-4.3.1.jar;C:\Users\gonca\.m2\repository\org\apache\avalon\framework\avalon-framework-impl\4.3.1\avalon-framework-impl-4.3.1.jar;C:\Users\gonca\.m2\repository\xalan\xalan\2.7.2\xalan-2.7.2.jar;C:\Users\gonca\.m2\repository\xalan\serializer\2.7.2\serializer-2.7.2.jar;C:\Users\gonca\.m2\repository\net\arnx\wmf2svg\0.9.8\wmf2svg-0.9.8.jar;C:\Users\gonca\.m2\repository\org\antlr\antlr-runtime\3.5.2\antlr-runtime-3.5.2.jar;C:\Users\gonca\.m2\repository\org\antlr\stringtemplate\3.2.1\stringtemplate-3.2.1.jar;C:\Users\gonca\.m2\repository\antlr\antlr\2.7.7\antlr-2.7.7.jar;C:\Users\gonca\.m2\repository\com\google\guava\guava\20.0\guava-20.0.jar;C:\Users\gonca\.m2\repository\com\thedeanda\lorem\2.1\lorem-2.1.jar;C:\Users\gonca\.m2\repository\com\sun\mail\javax.mail\1.6.2\javax.mail-1.6.2.jar;C:\Users\gonca\.m2\repository\javax\activation\activation\1.1\activation-1.1.jar;C:\Users\gonca\.m2\repository\com\oracle\jdbc\ojdbc7\12.1.0.2\ojdbc7-12.1.0.2.jar;C:\Users\gonca\.m2\repository\com\oracle\jdbc\xdb6\12.1.0.2\xdb6-12.1.0.2.jar;C:\Users\gonca\.m2\repository\com\oracle\jdbc\orai18n\12.1.0.2\orai18n-12.1.0.2.jar;C:\Users\gonca\.m2\repository\com\oracle\jdbc\xmlparserv2\12.1.0.2\xmlparserv2-12.1.0.2.jar;C:\Users\gonca\.m2\repository\com\oracle\jdbc\oraclepki\12.1.0.2\oraclepki-12.1.0.2.jar;C:\Users\gonca\.m2\repository\com\oracle\jdbc\osdt_cert\12.1.0.2\osdt_cert-12.1.0.2.jar;C:\Users\gonca\.m2\repository\com\oracle\jdbc\osdt_core\12.1.0.2\osdt_core-12.1.0.2.jar;C:\Users\gonca\.m2\repository\org\junit\jupiter\junit-jupiter-api\5.5.2\junit-jupiter-api-5.5.2.jar;C:\Users\gonca\.m2\repository\org\apiguardian\apiguardian-api\1.1.0\apiguardian-api-1.1.0.jar;C:\Users\gonca\.m2\repository\org\opentest4j\opentest4j\1.2.0\opentest4j-1.2.0.jar;C:\Users\gonca\.m2\repository\org\junit\platform\junit-platform-commons\1.5.2\junit-platform-commons-1.5.2.jar;C:\Users\gonca\.m2\repository\org\junit\jupiter\junit-jupiter-engine\5.5.2\junit-jupiter-engine-5.5.2.jar;C:\Users\gonca\.m2\repository\org\junit\platform\junit-platform-engine\1.5.2\junit-platform-engine-1.5.2.jar;C:\Users\gonca\.m2\repository\org\xmlunit\xmlunit-core\2.6.3\xmlunit-core-2.6.3.jar;C:\Users\gonca\.m2\repository\org\xmlunit\xmlunit-matchers\2.6.3\xmlunit-matchers-2.6.3.jar;C:\Users\gonca\.m2\repository\junit\junit\4.12\junit-4.12.jar;C:\Users\gonca\.m2\repository\org\hamcrest\hamcrest-core\1.3\hamcrest-core-1.3.jar;C:\Users\gonca\.m2\repository\org\mockito\mockito-all\1.9.5\mockito-all-1.9.5.jar;"/>
    <property name="sun.cpu.endian" value="little"/>
    <property name="user.home" value="C:\Users\gonca"/>
    <property name="user.language" value="pt"/>
    <property name="java.specification.vendor" value="Oracle Corporation"/>
    <property name="java.home" value="C:\Program Files\Java\jdk1.8.0_241\jre"/>
    <property name="basedir" value="C:\Users\gonca\Documents\Programa da Catequese\CatequeseManagingSystem"/>
    <property name="file.separator" value="\"/>
    <property name="line.separator" value="&#10;"/>
    <property name="java.vm.specification.vendor" value="Oracle Corporation"/>
    <property name="java.specification.name" value="Java Platform API Specification"/>
    <property name="java.awt.graphicsenv" value="sun.awt.Win32GraphicsEnvironment"/>
    <property name="surefire.real.class.path" value="C:\Users\gonca\AppData\Local\Temp\surefire8614156445909013893\surefirebooter6206875879579583278.jar;C:\\Users\\gonca\\.m2\\repository\\org\\jacoco\\org.jacoco.agent\\0.8.5\\org.jacoco.agent-0.8.5-runtime.jar"/>
    <property name="sun.boot.class.path" value="C:\Program Files\Java\jdk1.8.0_241\jre\lib\resources.jar;C:\Program Files\Java\jdk1.8.0_241\jre\lib\rt.jar;C:\Program Files\Java\jdk1.8.0_241\jre\lib\sunrsasign.jar;C:\Program Files\Java\jdk1.8.0_241\jre\lib\jsse.jar;C:\Program Files\Java\jdk1.8.0_241\jre\lib\jce.jar;C:\Program Files\Java\jdk1.8.0_241\jre\lib\charsets.jar;C:\Program Files\Java\jdk1.8.0_241\jre\lib\jfr.jar;C:\Program Files\Java\jdk1.8.0_241\jre\classes"/>
    <property name="user.script" value=""/>
    <property name="sun.management.compiler" value="HotSpot 64-Bit Tiered Compilers"/>
    <property name="java.runtime.version" value="1.8.0_241-b07"/>
    <property name="user.name" value="gonca"/>
    <property name="path.separator" value=";"/>
    <property name="os.version" value="10.0"/>
    <property name="java.endorsed.dirs" value="C:\Program Files\Java\jdk1.8.0_241\jre\lib\endorsed"/>
    <property name="java.runtime.name" value="Java(TM) SE Runtime Environment"/>
    <property name="file.encoding" value="UTF-8"/>
    <property name="java.vm.name" value="Java HotSpot(TM) 64-Bit Server VM"/>
    <property name="maven.ext.class.path" value="C:\Program Files\NetBeans 8.2\java\maven-nblib\netbeans-eventspy.jar"/>
    <property name="localRepository" value="C:\Users\gonca\.m2\repository"/>
    <property name="java.vendor.url.bug" value="http://bugreport.sun.com/bugreport/"/>
    <property name="java.io.tmpdir" value="C:\Users\gonca\AppData\Local\Temp\"/>
    <property name="java.version" value="1.8.0_241"/>
    <property name="user.dir" value="C:\Users\gonca\Documents\Programa da Catequese\CatequeseManagingSystem"/>
    <property name="os.arch" value="amd64"/>
    <property name="java.vm.specification.name" value="Java Virtual Machine Specification"/>
    <property name="java.awt.printerjob" value="sun.awt.windows.WPrinterJob"/>
    <property name="sun.os.patch.level" value=""/>
    <property name="java.library.path" value="C:\Program Files\Java\jdk1.8.0_241\jre\bin;C:\WINDOWS\Sun\Java\bin;C:\WINDOWS\system32;C:\WINDOWS;C:\Program Files (x86)\Common Files\Oracle\Java\javapath;C:\windows\system32;C:\windows;C:\windows\System32\Wbem;C:\windows\System32\WindowsPowerShell\v1.0\;C:\Program Files (x86)\NVIDIA Corporation\PhysX\Common;C:\Program Files\Intel\WiFi\bin\;C:\Program Files\Common Files\Intel\WirelessCommon\;C:\WINDOWS\system32;C:\WINDOWS;C:\WINDOWS\System32\Wbem;C:\WINDOWS\System32\WindowsPowerShell\v1.0\;C:\WINDOWS\System32\OpenSSH\;C:\Users\gonca\AppData\Local\Microsoft\WindowsApps;;."/>
    <property name="java.vm.info" value="mixed mode"/>
    <property name="java.vendor" value="Oracle Corporation"/>
    <property name="java.vm.version" value="25.241-b07"/>
    <property name="java.ext.dirs" value="C:\Program Files\Java\jdk1.8.0_241\jre\lib\ext;C:\WINDOWS\Sun\Java\lib\ext"/>
    <property name="sun.io.unicode.encoding" value="UnicodeLittle"/>
    <property name="java.class.version" value="52.0"/>
    <property name="runfx.args" value="-jar &quot;${project.build.directory}/${project.build.finalName}.jar&quot; "/>
  </properties>
  <testcase name="testNext" classname="cat.cap.cms.utils.UtilsTest" time="0.02"/>
  <testcase name="testSmallerOrEqualEqual" classname="cat.cap.cms.utils.UtilsTest" time="0.002"/>
  <testcase name="testSmallerOrEqualBigger" classname="cat.cap.cms.utils.UtilsTest" time="0"/>
  <testcase name="testPrevious" classname="cat.cap.cms.utils.UtilsTest" time="0"/>
  <testcase name="testSmallerThanEqual" classname="cat.cap.cms.utils.UtilsTest" time="0"/>
  <testcase name="testSmallerThanBigger" classname="cat.cap.cms.utils.UtilsTest" time="0"/>
  <testcase name="testBiggerThanBigger" classname="cat.cap.cms.utils.UtilsTest" time="0"/>
  <testcase name="testBiggerOrEqualBigger" classname="cat.cap.cms.utils.UtilsTest" time="0"/>
  <testcase name="testBiggerThanEqual" classname="cat.cap.cms.utils.UtilsTest" time="0"/>
  <testcase name="testBiggerThanSmaller" classname="cat.cap.cms.utils.UtilsTest" time="0"/>
  <testcase name="testSmallerThanSmaller" classname="cat.cap.cms.utils.UtilsTest" time="0.001"/>
  <testcase name="testBiggerOrEqualEqual" classname="cat.cap.cms.utils.UtilsTest" time="0.001"/>
  <testcase name="testSmallerOrEqualSmaller" classname="cat.cap.cms.utils.UtilsTest" time="0.001"/>
  <testcase name="testBiggerOrEqualSmaller" classname="cat.cap.cms.utils.UtilsTest" time="0"/>
</testsuite>